NYX VA - Project_MC2
…
Show the code

seafood_graph<- tbl_graph(nodes=nodes_seafood,
                          edges = mc2_seafood_edges_agg,
                          directed = TRUE)

Show the code

seafood_graph

# A tbl_graph: 191 nodes and 3337 edges
#
# A directed multigraph with 3 components
#
# A tibble: 191 × 3
  id                               shpcountry rcvcountry
  <chr>                            <chr>      <chr>     
1 Olas del Mar Worldwide           Oceanus    Oceanus   
2 Panope Limited Liability Company Vesperanda Oceanus   
3 hǎi dǎn Corporation Wharf        Marebak    Oceanus   
4 Sea Breezes GmbH & Co. KG Shark  Oceanus    Oceanus   
5 Costa de la Felicidad Shipping   Alverossia Oceanus   
6 Mar del Este CJSC                Merigrad   Oceanus   
# ℹ 185 more rows
#
# A tibble: 3,337 × 6
   from    to arrivaldate Weight Totalweight hscode
  <int> <int> <chr>        <int>       <int> <chr> 
1    77    13 2029-08-03       5       76235 160521
2    77    29 2028-01-02       6       87635 160521
3    77    29 2030-02-05       7       98075 160521
# ℹ 3,334 more rows
…
