NYX VA - gghorizon
…
mc2_seafood_edges_agg_vis %>%  group_by(from) %>%  summarise(Allweight = sum(Weight)) %>%
  arrange(desc(Allweight))

# A tibble: 76 × 2
   from                                           Allweight
   <chr>                                              <int>
 1 "Playa del Tesoro OJSC"                             6139
 2 "Estrella de la Costa SRL"                          2797
 3 "OceanicOrigin Foods Co Consulting"                 1629
 4 "Náutica del Sol Brothers"                           816
 5 "Beachcomber's Bounty Sea spray"                     557
 6 "Mar de la Aventura Limited Liability Company"       544
 7 "Shou gan  Oyj Overseas"                             483
 8 "Diao er  Limited Liability Company"                 425
 9 "Oceanfront Oasis Company Green "                    390
10 "Gujarat   Tide NV Solutions"                        380
# ℹ 66 more rows
…
