NYX VA - Take-home_Ex02
…
To create the network graph dataframe

Show the code

seafood_graph<- tbl_graph(nodes=nodes_seafood,
                          edges = mc2_seafood_edges_agg,
                          directed = TRUE)

The dataframe ‘seafood_graph’ has 11539 nodes with 374709 edges. It is a directed graph with 214 components.

# A tbl_graph: 11539 nodes and 374709 edges
#
# A directed multigraph with 214 components
#
# A tibble: 11,539 × 3
  id                                shpcountry rcvcountry
  <chr>                             <chr>      <chr>     
1 AquaDelight Inc and Son's         Polarinda  Oceanus   
2 Yu gan  Sea spray GmbH Industrial Oceanus    Oceanus   
3 Olas del Mar Worldwide            Oceanus    Oceanus   
4 French Crab S.p.A. Worldwide      Kondanovia Utoporiana
5 Panope Limited Liability Company  Vesperanda Oceanus   
6 hǎi dǎn Corporation Wharf         Marebak    Oceanus   
# ℹ 11,533 more rows
#
# A tibble: 374,709 × 11
   from    to arrivaldate weight sum_goods_weightkg hscode  year month   day
  <int> <int> <date>       <int>              <int> <chr>  <dbl> <dbl> <int>
1  1632  5401 2029-12-21       2              42950 307590  2029    12    21
2  1632  5401 2030-01-19       2              42585 307590  2030     1    19
3  1632  5401 2030-06-25       1              21110 307590  2030     6    25
# ℹ 374,706 more rows
# ℹ 2 more variables: weekday <ord>, weeknumber <dbl>
…
