NYX VA - Take-home_Ex01
…
Next, we will remove all records of the 131 potentially non-residents from the finance dataset .

In the code chunk below:

the %in% operator is to check if each id value is contained in the missing_id_vector

the negation operator ! ensures the resulting filtered data frame will not contain the rows where the id values are in missing_id_vector

finance1 <- finance[!finance$participantId %in% missing_id_vector, ]
finance1

# A tibble: 1,509,897 × 6
   participantId timestamp           category  amount month_year date      
   <chr>         <dttm>              <chr>      <dbl> <chr>      <date>    
 1 0             2022-03-01 00:00:00 Wage      2473.  03-2022    2022-03-01
 2 0             2022-03-01 00:00:00 Shelter    555.  03-2022    2022-03-01
 3 0             2022-03-01 00:00:00 Education   38.0 03-2022    2022-03-01
 4 1             2022-03-01 00:00:00 Wage      2047.  03-2022    2022-03-01
 5 1             2022-03-01 00:00:00 Shelter    555.  03-2022    2022-03-01
 6 1             2022-03-01 00:00:00 Education   38.0 03-2022    2022-03-01
 7 2             2022-03-01 00:00:00 Wage      2437.  03-2022    2022-03-01
 8 2             2022-03-01 00:00:00 Shelter    557.  03-2022    2022-03-01
 9 2             2022-03-01 00:00:00 Education   12.8 03-2022    2022-03-01
10 3             2022-03-01 00:00:00 Wage      2367.  03-2022    2022-03-01
# ℹ 1,509,887 more rows
…
We will now convert the finance1 dataframe from a long to a wide format. The code chunk below does the following:

group the data by participantId , date and category using the group_by function

use the sum function to calculate the total monthly amount for each category per participantId per month

the pivot_wider function will convert the category column to wide format with total monthly values in the amount column.

finance1_wide<- finance1 %>%
  group_by(participantId, date, category) %>%
  summarise(total_amount = sum(amount)) %>%
  pivot_wider(names_from = category, values_from = total_amount)

# A tibble: 10,560 × 8
# Groups:   participantId, date [10,560]
   participantId date       Education  Food Recreation Shelter   Wage
   <chr>         <date>         <dbl> <dbl>      <dbl>   <dbl>  <dbl>
 1 0             2022-03-01      38.0  268.      349.     555. 11932.
 2 0             2022-04-01      38.0  266.      219.     555.  8637.
 3 0             2022-05-01      38.0  265.      383.     555.  9048.
 4 0             2022-06-01      38.0  257.      466.     555.  9048.
 5 0             2022-07-01      38.0  270.     1069.     555.  8637.
 6 0             2022-08-01      38.0  262.      314.     555.  9459.
 7 0             2022-09-01      38.0  256.      295.     555.  9048.
 8 0             2022-10-01      38.0  267.       25.0    555.  8637.
 9 0             2022-11-01      38.0  261       377.     555.  9048.
10 0             2022-12-01      38.0  266.      357.     555.  9048.
# ℹ 10,550 more rows
# ℹ 1 more variable: RentAdjustment <dbl>
…
