NYX VA - Hands-on_Ex08 (Network graphs)
…
GAStech_graph<- tbl_graph(nodes=GAStech_nodes,
                          edges = GAStech_edges_aggregated,
                          directed = TRUE)

27.4.4 Reviewing the output tidygraph’s graph object

Show the code

GAStech_graph

# A tbl_graph: 54 nodes and 1456 edges
#
# A directed multigraph with 1 component
#
# A tibble: 54 × 4
     id label               Department     Title                                
  <dbl> <chr>               <chr>          <chr>                                
1     1 Mat.Bramar          Administration Assistant to CEO                     
2     2 Anda.Ribera         Administration Assistant to CFO                     
3     3 Rachel.Pantanal     Administration Assistant to CIO                     
4     4 Linda.Lagos         Administration Assistant to COO                     
5     5 Ruscella.Mies.Haber Administration Assistant to Engineering Group Manag…
6     6 Carla.Forluniau     Administration Assistant to IT Group Manager        
# ℹ 48 more rows
#
# A tibble: 1,456 × 4
   from    to Weekday   Weight
  <int> <int> <ord>      <int>
1     1     2 Monday         4
2     1     2 Tuesday        3
3     1     2 Wednesday      5
# ℹ 1,453 more rows
…
The nodes tibble data frame is activated by default, but you can change which tibble data frame is active with the activate() function. Thus, if we wanted to rearrange the rows in the edges tibble to list those with the highest “weight” first, we could use activate() and then arrange().

For example,

Show the code

GAStech_graph %>% 
  activate(edges) %>% 
  arrange(desc(Weight))

# A tbl_graph: 54 nodes and 1456 edges
#
# A directed multigraph with 1 component
#
# A tibble: 1,456 × 4
   from    to Weekday Weight
  <int> <int> <ord>    <int>
1    40    41 Tuesday     23
2    40    43 Tuesday     19
3    41    43 Tuesday     15
4    41    40 Tuesday     14
5    42    41 Tuesday     13
6    42    40 Tuesday     12
# ℹ 1,450 more rows
#
# A tibble: 54 × 4
     id label           Department     Title           
  <dbl> <chr>           <chr>          <chr>           
1     1 Mat.Bramar      Administration Assistant to CEO
2     2 Anda.Ribera     Administration Assistant to CFO
3     3 Rachel.Pantanal Administration Assistant to CIO
# ℹ 51 more rows
…
